
           ______ ____       ____  __
          Z      i    i_  __¿    ò°  \__ TM  -x-
          /   _  /      \/  __   /    __@__
   -x-   /    __/   ò   /  °    /         /
        l____j l___/____j_______l________J

                  -= PHATGIFS =-
    A premium, organic mixer for juicy mashups

                 made for friends
          by zenoamaro  at gmail dot com

       Completely inspired to  gifsound.com